<svg xmlns="http://www.w3.org/2000/svg" xmlns:xlink="http://www.w3.org/1999/xlink" width="675" height="675" viewBox="0 0 675 675">
  <defs>
    <linearGradient id="linear-gradient" x1="0.5" x2="0.5" y2="1" gradientUnits="objectBoundingBox">
      <stop offset="0" stop-color="#79c25f"/>
      <stop offset="1" stop-color="#adcf2a"/>
    </linearGradient>
    <filter id="Subtraction_3" x="0" y="0" width="675" height="675" filterUnits="userSpaceOnUse">
      <feOffset input="SourceAlpha"/>
      <feGaussianBlur stdDeviation="10" result="blur"/>
      <feFlood flood-opacity="0.161"/>
      <feComposite operator="in" in2="blur"/>
      <feComposite in="SourceGraphic"/>
    </filter>
  </defs>
  <g transform="matrix(1, 0, 0, 1, 0, 0)" filter="url(#Subtraction_3)">
    <path id="Subtraction_3-2" data-name="Subtraction 3" d="M307.5,615a309.779,309.779,0,0,1-61.972-6.247,305.818,305.818,0,0,1-109.954-46.269A308.4,308.4,0,0,1,24.165,427.193,305.95,305.95,0,0,1,6.247,369.472a310.5,310.5,0,0,1,0-123.944A305.816,305.816,0,0,1,52.516,135.574,308.4,308.4,0,0,1,187.807,24.165,305.953,305.953,0,0,1,245.528,6.247a310.5,310.5,0,0,1,123.944,0A305.815,305.815,0,0,1,479.426,52.516,308.4,308.4,0,0,1,590.835,187.807a305.949,305.949,0,0,1,17.918,57.721,310.5,310.5,0,0,1,0,123.944,305.817,305.817,0,0,1-46.269,109.954A308.4,308.4,0,0,1,427.193,590.835a305.946,305.946,0,0,1-57.721,17.918A309.774,309.774,0,0,1,307.5,615Zm.5-515c-114.692,0-208,93.308-208,208s93.308,208,208,208,208-93.308,208-208S422.691,100,308,100Z" transform="translate(30 30)" fill="url(#linear-gradient)"/>
  </g>
</svg>
